﻿


EVENT   1
 PAGE   1
  281(1)
  250(bytes(0x04,0x08,0x6f,0x3a,0x0c,0x52,0x50,0x47,0x3a,0x3a,0x53,0x45,0x08,0x3a,0x0a,0x40,0x6e,0x61,0x6d,0x65,0x49,0x22,0x09,0x4d,0x6f,0x76,0x65,0x06,0x3a,0x06,0x45,0x54,0x3a,0x0b,0x40,0x70,0x69,0x74,0x63,0x68,0x69,0x69,0x3a,0x0c,0x40,0x76,0x6f,0x6c,0x75,0x6d,0x65,0x69,0x55))
  TeleportPlayer(0,47,21,10,0,0)
  0()



EVENT   2
 PAGE   1
  281(1)
  250(bytes(0x04,0x08,0x6f,0x3a,0x0c,0x52,0x50,0x47,0x3a,0x3a,0x53,0x45,0x08,0x3a,0x0a,0x40,0x6e,0x61,0x6d,0x65,0x49,0x22,0x09,0x4d,0x6f,0x76,0x65,0x06,0x3a,0x06,0x45,0x54,0x3a,0x0b,0x40,0x70,0x69,0x74,0x63,0x68,0x69,0x69,0x3a,0x0c,0x40,0x76,0x6f,0x6c,0x75,0x6d,0x65,0x69,0x55))
  TeleportPlayer(0,47,36,13,0,0)
  0()



EVENT   3
 PAGE   1
  281(1)
  250(bytes(0x04,0x08,0x6f,0x3a,0x0c,0x52,0x50,0x47,0x3a,0x3a,0x53,0x45,0x08,0x3a,0x0a,0x40,0x6e,0x61,0x6d,0x65,0x49,0x22,0x09,0x4d,0x6f,0x76,0x65,0x06,0x3a,0x06,0x45,0x54,0x3a,0x0b,0x40,0x70,0x69,0x74,0x63,0x68,0x69,0x69,0x3a,0x0c,0x40,0x76,0x6f,0x6c,0x75,0x6d,0x65,0x69,0x55))
  TeleportPlayer(0,47,13,22,0,0)
  0()



EVENT   4
 PAGE   1
  281(1)
  250(bytes(0x04,0x08,0x6f,0x3a,0x0c,0x52,0x50,0x47,0x3a,0x3a,0x53,0x45,0x08,0x3a,0x0a,0x40,0x6e,0x61,0x6d,0x65,0x49,0x22,0x09,0x4d,0x6f,0x76,0x65,0x06,0x3a,0x06,0x45,0x54,0x3a,0x0b,0x40,0x70,0x69,0x74,0x63,0x68,0x69,0x69,0x3a,0x0c,0x40,0x76,0x6f,0x6c,0x75,0x6d,0x65,0x69,0x55))
  TeleportPlayer(0,47,34,23,0,0)
  0()



EVENT   5
 PAGE   1
  281(1)
  250(bytes(0x04,0x08,0x6f,0x3a,0x0c,0x52,0x50,0x47,0x3a,0x3a,0x53,0x45,0x08,0x3a,0x0a,0x40,0x6e,0x61,0x6d,0x65,0x49,0x22,0x09,0x4d,0x6f,0x76,0x65,0x06,0x3a,0x06,0x45,0x54,0x3a,0x0b,0x40,0x70,0x69,0x74,0x63,0x68,0x69,0x69,0x3a,0x0c,0x40,0x76,0x6f,0x6c,0x75,0x6d,0x65,0x69,0x55))
  TeleportPlayer(0,47,19,32,0,0)
  0()



EVENT   6
 PAGE   1
  If(2,"A",1)
   ChangeSelfSwitch("A",0)
   ChangeVariable(1035,1035,1,0,1)
   0()
  EndIf()
  ShowMessageFace("",0,0,2,1)
  ShowMessage("\\n<Investigator>This shop used to be the local tool store, so I've arranged most of its stock on this table. Strangely enough, it was well organized before we got here.")
  ShowMessageFace("",0,0,2,2)
  ShowMessage("\\n<Investigator>According to this list of goods, no items are missing. If they left of their own free will, they should have brought at least some of these things with them.")
  0()
 PAGE   2
  // condition: variable 1001 >= 26
  0()



EVENT   7
 PAGE   1
  ShowMessageFace("",0,0,2,1)
  ShowMessage("\\n<Investigator>We investigators rest here as it used to be the village inn.")
  ShowMessageFace("",0,0,2,2)
  ShowMessage("\\n<Investigator>Would you like to rest here as well?")
  ShowChoices(strings("Yes","No"),2)
  IfPlayerPicksChoice(0,null)
   221()
   249(bytes(0x04,0x08,0x6f,0x3a,0x0c,0x52,0x50,0x47,0x3a,0x3a,0x4d,0x45,0x08,0x3a,0x0a,0x40,0x6e,0x61,0x6d,0x65,0x49,0x22,0x08,0x49,0x6e,0x6e,0x06,0x3a,0x06,0x45,0x54,0x3a,0x0b,0x40,0x70,0x69,0x74,0x63,0x68,0x69,0x69,0x3a,0x0c,0x40,0x76,0x6f,0x6c,0x75,0x6d,0x65,0x69,0x69))
   Wait(150)
   314(0,0)
   222()
   0()
  IfPlayerPicksChoice(1,null)
   0()
  404()
  0()
 PAGE   2
  // condition: variable 1001 >= 26
  0()



EVENT   8
 PAGE   1
  If(2,"A",1)
   ChangeSelfSwitch("A",0)
   ChangeVariable(1035,1035,1,0,1)
   0()
  EndIf()
  ShowMessageFace("",0,0,2,1)
  ShowMessage("\\n<Investigator>The villagers who disappeared didn't leave any messages behind, except this one line. But it's unclear in its meaning.")
  ShowMessageFace("",0,0,2,2)
  ShowMessage("The letter is written with beautiful penmanship...")
  ShowMessageFace("",0,0,2,3)
  ShowMessage("'We set off to the world of God.'")
  ShowMessageFace("",0,0,2,4)
  ShowMessage("\\n<Investigator>I wonder what 'We set off to the world of God.' means. Some of the other investigators suggest mass suicide...")
  ShowMessageFace("",0,0,2,5)
  ShowMessage("\\n<Investigator>I don't think all of the villagers would just commit suicide. There would be people who resist and oppose that.")
  ShowMessageFace("",0,0,2,6)
  ShowMessage("\\n<Investigator>And why have they only left this cryptic note behind? Did they want to avoid conveying to other people where they were going?")
  ShowMessageFace("",0,0,2,7)
  ShowMessage("\\n<Investigator>Of course, the villagers from here had plenty of relatives and acquaintances outside of Rubiana. Why would they not let them know where they were going?")
  ShowMessageFace("",0,0,2,8)
  ShowMessage("\\n<Investigator>It can't have been due to a lack of time. The residents of every house had cleaned up before leaving.")
  ShowMessageFace("",0,0,2,9)
  ShowMessage("\\n<Investigator>If they had the time for that, why couldn't they have left any clear message or let their relatives know... Good grief, nothing about this village makes sense.")
  0()
 PAGE   2
  // condition: variable 1001 >= 26
  0()



EVENT   9
 PAGE   1
  If(2,"A",1)
   ChangeSelfSwitch("A",0)
   ChangeVariable(1035,1035,1,0,1)
   0()
  EndIf()
  ShowMessageFace("",0,0,2,1)
  ShowMessage("\\n<Investigator>The strange thing is, the inhabitants left all their belongings behind.")
  ShowMessageFace("",0,0,2,2)
  ShowMessage("\\n<Investigator>Not just their money and daily necessities, but even food and medicine. If they meant to travel elsewhere, why would they leave all of their stuff behind?")
  ShowMessageFace("",0,0,2,3)
  ShowMessage("\\n<Investigator>Where on earth have they gone and why did they leave all of their belongings?")
  0()
 PAGE   2
  // condition: variable 1001 >= 26
  0()



EVENT   10
 PAGE   1
  If(2,"A",1)
   ChangeSelfSwitch("A",0)
   ChangeVariable(1035,1035,1,0,1)
   0()
  EndIf()
  ShowMessageFace("",0,0,2,1)
  ShowMessage("\\n<Investigator>As you can see, there is no evidence of fighting or property damage. There is however, lots of evidence that the villagers left out of their own free will.")
  ShowMessageFace("",0,0,2,2)
  ShowMessage("\\n<Investigator>But where have they gone? To think such a large number of people would disappear without notice and nobody else realized for so long.")
  ShowMessageFace("",0,0,2,3)
  ShowMessage("\\n<Investigator>It seems as if they disappeared like smoke in the air. I wonder what happened...")
  0()
 PAGE   2
  // condition: variable 1001 >= 26
  0()



EVENT   11
 PAGE   1
  250(bytes(0x04,0x08,0x6f,0x3a,0x0c,0x52,0x50,0x47,0x3a,0x3a,0x53,0x45,0x08,0x3a,0x0a,0x40,0x6e,0x61,0x6d,0x65,0x49,0x22,0x0a,0x49,0x74,0x65,0x6d,0x31,0x06,0x3a,0x06,0x45,0x54,0x3a,0x0b,0x40,0x70,0x69,0x74,0x63,0x68,0x69,0x69,0x3a,0x0c,0x40,0x76,0x6f,0x6c,0x75,0x6d,0x65,0x69,0x55))
  ChangeSelfSwitch("A",0)
  ChangeInventory_Item(32,0,0,1)
  0()
 PAGE   2
  // condition: self-switch A is ON
  0()



EVENT   12
 PAGE   1
  250(bytes(0x04,0x08,0x6f,0x3a,0x0c,0x52,0x50,0x47,0x3a,0x3a,0x53,0x45,0x08,0x3a,0x0a,0x40,0x6e,0x61,0x6d,0x65,0x49,0x22,0x0a,0x49,0x74,0x65,0x6d,0x31,0x06,0x3a,0x06,0x45,0x54,0x3a,0x0b,0x40,0x70,0x69,0x74,0x63,0x68,0x69,0x69,0x3a,0x0c,0x40,0x76,0x6f,0x6c,0x75,0x6d,0x65,0x69,0x55))
  ChangeSelfSwitch("A",0)
  ChangeInventory_Item(335,0,0,1)
  0()
 PAGE   2
  // condition: self-switch A is ON
  0()



EVENT   13
 PAGE   1
  250(bytes(0x04,0x08,0x6f,0x3a,0x0c,0x52,0x50,0x47,0x3a,0x3a,0x53,0x45,0x08,0x3a,0x0a,0x40,0x6e,0x61,0x6d,0x65,0x49,0x22,0x0a,0x49,0x74,0x65,0x6d,0x31,0x06,0x3a,0x06,0x45,0x54,0x3a,0x0b,0x40,0x70,0x69,0x74,0x63,0x68,0x69,0x69,0x3a,0x0c,0x40,0x76,0x6f,0x6c,0x75,0x6d,0x65,0x69,0x55))
  ChangeSelfSwitch("A",0)
  ChangeInventoryArmor(176,0,0,1,false)
  0()
 PAGE   2
  // condition: self-switch A is ON
  0()



EVENT   14
 PAGE   1
  250(bytes(0x04,0x08,0x6f,0x3a,0x0c,0x52,0x50,0x47,0x3a,0x3a,0x53,0x45,0x08,0x3a,0x0a,0x40,0x6e,0x61,0x6d,0x65,0x49,0x22,0x0a,0x49,0x74,0x65,0x6d,0x31,0x06,0x3a,0x06,0x45,0x54,0x3a,0x0b,0x40,0x70,0x69,0x74,0x63,0x68,0x69,0x69,0x3a,0x0c,0x40,0x76,0x6f,0x6c,0x75,0x6d,0x65,0x69,0x55))
  ChangeSelfSwitch("A",0)
  ChangeInventory_Item(188,0,0,1)
  0()
 PAGE   2
  // condition: self-switch A is ON
  0()



EVENT   15
 PAGE   1
  ShowMessageFace("",0,0,2,1)
  ShowMessage("\\n<Investigator>This household looks like it kept a dog, but there's no sign of that dog anymore.")
  ShowMessageFace("",0,0,2,2)
  ShowMessage("\\n<Investigator>Similarly, the other households also have missing pets and livestock. I wonder if the villagers took them along...")
  355("actor_label_jump")
  EndEventProcessing()
  DefineLabel("60")
  ShowMessageFace("dog_fc1",0,0,2,3)
  ShowMessage("\\n<Pochi>Did doggies also disappear?")
  EndEventProcessing()
  0()
 PAGE   2
  // condition: variable 1001 >= 26
  0()



EVENT   16
 PAGE   1
  ShowMessageFace("",0,0,2,1)
  ShowMessage("\\n<Investigator>I know it sounds strange, but every house seems too clean. It looks as if they organized everything exactly as it should be before leaving the village.")
  ShowMessageFace("",0,0,2,2)
  ShowMessage("\\n<Investigator>They dispose of the raw ingredients, they clean the kitchens to perfection, and then every one of the villagers disappears after they finish cleaning. Seriously?")
  0()
 PAGE   2
  // condition: variable 1001 >= 26
  0()



EVENT   17
 PAGE   1
  250(bytes(0x04,0x08,0x6f,0x3a,0x0c,0x52,0x50,0x47,0x3a,0x3a,0x53,0x45,0x08,0x3a,0x0a,0x40,0x6e,0x61,0x6d,0x65,0x49,0x22,0x0a,0x49,0x74,0x65,0x6d,0x31,0x06,0x3a,0x06,0x45,0x54,0x3a,0x0b,0x40,0x70,0x69,0x74,0x63,0x68,0x69,0x69,0x3a,0x0c,0x40,0x76,0x6f,0x6c,0x75,0x6d,0x65,0x69,0x55))
  ChangeSelfSwitch("A",0)
  ChangeInventory_Item(36,0,0,1)
  0()
 PAGE   2
  // condition: self-switch A is ON
  0()
